<svg xmlns="http://www.w3.org/2000/svg" width="328.938" height="89.813" viewBox="0 0 328.938 89.813">
  <metadata><?xpacket begin="﻿" id="W5M0MpCehiHzreSzNTczkc9d"?>
<x:xmpmeta xmlns:x="adobe:ns:meta/" x:xmptk="Adobe XMP Core 5.6-c138 79.159824, 2016/09/14-01:09:01        ">
   <rdf:RDF xmlns:rdf="http://www.w3.org/1999/02/22-rdf-syntax-ns#">
      <rdf:Description rdf:about=""/>
   </rdf:RDF>
</x:xmpmeta>
                                                                                                    
                                                                                                    
                                                                                                    
                                                                                                    
                                                                                                    
                                                                                                    
                                                                                                    
                                                                                                    
                                                                                                    
                                                                                                    
                                                                                                    
                                                                                                    
                                                                                                    
                                                                                                    
                                                                                                    
                                                                                                    
                                                                                                    
                                                                                                    
                                                                                                    
                                                                                                    
                           
<?xpacket end="w"?></metadata>
<defs>
    <style>
      .cls-1 {
        fill: #ff5413;
      }

      .cls-1, .cls-2, .cls-3 {
        fill-rule: evenodd;
      }

      .cls-2, .cls-4 {
        fill: #ffc600;
      }

      .cls-2, .cls-3, .cls-4 {
        opacity: 0.75;
      }

      .cls-3, .cls-5 {
        fill: #fd7b09;
      }

      .cls-5 {
        font-size: 25.452px;
        font-family: Raleway;
        font-weight: 500;
      }
    </style>
  </defs>
  <path class="cls-1" d="M312.988,53.472a13.02,13.02,0,0,1,.264,18.534l-63.347,63.577a13.324,13.324,0,0,1-18.714-.017,13.019,13.019,0,0,1-.264-18.534l63.347-63.577A13.323,13.323,0,0,1,312.988,53.472Z" transform="translate(-227.062 -49.625)"/>
  <path class="cls-2" d="M237.964,110.051h67.894c4.088,0,7.4,2.934,7.4,6.554s-3.313,6.554-7.4,6.554l-78.209-.064c-0.244,0,.585-3.7,4.26-7.165C235.674,112.376,237.9,110.051,237.964,110.051Z" transform="translate(-227.062 -49.625)"/>
  <path id="Shape_2_copy_4" data-name="Shape 2 copy 4" class="cls-3" d="M227.146,126.147l54.385,0.1c4.087,0,7.4,2.934,7.4,6.554s-3.314,6.554-7.4,6.554l-40.275.048a13.652,13.652,0,0,1-10.856-4.771C227.077,130.956,227.292,126.147,227.146,126.147Z" transform="translate(-227.062 -49.625)"/>
  <path id="Shape_2_copy_2" data-name="Shape 2 copy 2" class="cls-3" d="M250.6,49.715l53.249-.065a13.881,13.881,0,0,1,11.294,6.618,12.1,12.1,0,0,1,1.875,6.618L250.6,62.823c-4.088,0-7.4-2.934-7.4-6.554S246.51,49.715,250.6,49.715Z" transform="translate(-227.062 -49.625)"/>
  <path id="Shape_2_copy_3" data-name="Shape 2 copy 3" class="cls-2" d="M264.026,66.678h52.342s0.388,2.087-5.769,7.968c-2.794,2.669-5.129,5.141-5.195,5.141H264.026c-4.087,0-7.4-2.935-7.4-6.554S259.939,66.678,264.026,66.678Z" transform="translate(-227.062 -49.625)"/>
  <path class="cls-2" d="M298.921,127.014H309.4a6.172,6.172,0,1,1,0,12.337h-10.48A6.172,6.172,0,1,1,298.921,127.014Z" transform="translate(-227.062 -49.625)"/>
  <path id="Shape_3_copy" data-name="Shape 3 copy" class="cls-3" d="M236.253,67.449h10.481a6.172,6.172,0,1,1,0,12.337H236.253A6.172,6.172,0,1,1,236.253,67.449Z" transform="translate(-227.062 -49.625)"/>
  <circle class="cls-4" cx="6.657" cy="7.281" r="6.375"/>
  <text id="ZOTIFY" class="cls-5" transform="translate(115.01 65.089) scale(2.267 2.245)">ZOTIFY</text>
</svg>
